…
Extract the data of 2007 and get a ranking according to gdpPercap in
2007

``` r
Asia2007 <- AsiaData[AsiaData$year==2007,]
Asia2007[rank(Asia2007$gdpPercap),]
```

    ## # A tibble: 33 x 6
    ##    country          continent  year lifeExp      pop gdpPercap
    ##    <fct>            <fct>     <int>   <dbl>    <int>     <dbl>
    ##  1 Bahrain          Asia       2007    75.6   708573    29796.
    ##  2 Taiwan           Asia       2007    78.4 23174294    28718.
    ##  3 Cambodia         Asia       2007    59.7 14131858     1714.
    ##  4 Hong Kong, China Asia       2007    82.2  6980412    39725.
    ##  5 Mongolia         Asia       2007    66.8  2874127     3096.
    ##  6 Vietnam          Asia       2007    74.2 85262356     2442.
    ##  7 Iran             Asia       2007    71.0 69453570    11606.
    ##  8 Korea, Dem. Rep. Asia       2007    67.3 23301725     1593.
    ##  9 Oman             Asia       2007    75.6  3204897    22316.
    ## 10 Lebanon          Asia       2007    72.0  3921278    10461.
    ## # ... with 23 more rows
…
